^C:\USERS\ACER ASPIRE E5-571G\DOCUMENTS\VISUAL STUDIO 2015\PROJECTS\ПРОЕКТ1\ПРОЕКТ1\SOURCE.CPP
C:\USERS\ACER ASPIRE E5-571G\DOCUMENTS\VISUAL STUDIO 2015\PROJECTS\Проект1\Проект1\DEBUG\VC140.PDB
C:\USERS\ACER ASPIRE E5-571G\DOCUMENTS\VISUAL STUDIO 2015\PROJECTS\Проект1\Проект1\DEBUG\VC140.IDB
C:\USERS\ACER ASPIRE E5-571G\DOCUMENTS\VISUAL STUDIO 2015\PROJECTS\Проект1\Проект1\DEBUG\SOURCE.OBJ
