^C:\USERS\ACER ASPIRE E5-571G\DOCUMENTS\VISUAL STUDIO 2015\PROJECTS\ПРОЕКТ1\ПРОЕКТ1\DEBUG\SOURCE.OBJ
C:\USERS\ACER ASPIRE E5-571G\DOCUMENTS\VISUAL STUDIO 2015\PROJECTS\Проект1\DEBUG\Проект1.ILK
C:\USERS\ACER ASPIRE E5-571G\DOCUMENTS\VISUAL STUDIO 2015\PROJECTS\Проект1\DEBUG\Проект1.EXE
C:\USERS\ACER ASPIRE E5-571G\DOCUMENTS\VISUAL STUDIO 2015\PROJECTS\ПРОЕКТ1\DEBUG\ПРОЕКТ1.PDB
